[gd_resource type="DynamicFont" load_steps=2 format=2]

[ext_resource path="res://game/fonts/soupofjustice.ttf" type="DynamicFontData" id=1]

[resource]
size = 12
outline_size = 2
outline_color = Color( 0, 0, 0, 1 )
extra_spacing_char = 2
font_data = ExtResource( 1 )
