[gd_scene load_steps=8 format=2]

[ext_resource path="res://gs_ludumdare/scenes/ludum_scores.tscn" type="PackedScene" id=1]
[ext_resource path="res://game/theme.tres" type="Theme" id=2]
[ext_resource path="res://game/assets/layer_sky.png" type="Texture" id=3]
[ext_resource path="res://game/layers/layer_earth.tscn" type="PackedScene" id=4]
[ext_resource path="res://game/layers/layer_fans.tscn" type="PackedScene" id=5]
[ext_resource path="res://game/fonts/ui48.tres" type="DynamicFont" id=6]
[ext_resource path="res://game/scenes/score_panel.tscn" type="PackedScene" id=7]

[node name="LudumScores" instance=ExtResource( 1 )]
score_panel = ExtResource( 7 )

[node name="MenuButton" parent="Node" index="0"]
margin_left = 217.474
margin_top = 593.688
margin_right = 299.059
margin_bottom = 634.937
theme = ExtResource( 2 )

[node name="Title" parent="Node" index="1"]
margin_bottom = 116.0
custom_fonts/normal_font = ExtResource( 6 )

[node name="ScoreList" parent="Node" index="2"]
anchor_top = 0.0
anchor_bottom = 0.0
margin_top = 111.0
margin_bottom = 311.0

[node name="LayerEarth" parent="." index="1" instance=ExtResource( 4 )]
position = Vector2( -30.6516, 869.348 )

[node name="LayerFans" parent="." index="2" instance=ExtResource( 5 )]
position = Vector2( -25.3621, 866.311 )

[node name="Node2D" type="Node2D" parent="." index="3"]
z_index = -999

[node name="TextureRect" type="TextureRect" parent="Node2D" index="0"]
margin_left = -39.0
margin_top = -30.0
margin_right = 591.0
margin_bottom = 1057.0
mouse_filter = 2
texture = ExtResource( 3 )
stretch_mode = 2
__meta__ = {
"_edit_use_anchors_": false
}
