[gd_scene load_steps=34 format=2]

[ext_resource path="res://addons/rmsmartshape/shapes/shape_closed.gd" type="Script" id=1]
[ext_resource path="res://game/assets/layer_upper_mantle.png" type="Texture" id=2]
[ext_resource path="res://game/assets/layer_upper_mantle_edge.png" type="Texture" id=5]
[ext_resource path="res://addons/rmsmartshape/vertex_properties.gd" type="Script" id=6]
[ext_resource path="res://addons/rmsmartshape/materials/edge_material_metadata.gd" type="Script" id=7]
[ext_resource path="res://addons/rmsmartshape/normal_range.gd" type="Script" id=8]
[ext_resource path="res://addons/rmsmartshape/materials/edge_material.gd" type="Script" id=9]
[ext_resource path="res://addons/rmsmartshape/shapes/point_array.gd" type="Script" id=10]
[ext_resource path="res://addons/rmsmartshape/shapes/point.gd" type="Script" id=11]
[ext_resource path="res://addons/rmsmartshape/materials/shape_material.gd" type="Script" id=12]

[sub_resource type="Resource" id=1]
script = ExtResource( 6 )
texture_idx = 0
flip = false
width = 1.0

[sub_resource type="Resource" id=2]
script = ExtResource( 11 )
position = Vector2( -96.7949, -35.4884 )
point_in = Vector2( -148.332, 118.366 )
point_out = Vector2( 148.332, -118.366 )
properties = SubResource( 1 )

[sub_resource type="Resource" id=3]
script = ExtResource( 6 )
texture_idx = 3
flip = false
width = 1.0

[sub_resource type="Resource" id=4]
script = ExtResource( 11 )
position = Vector2( 645.078, 33.8101 )
point_in = Vector2( -92.895, -112.373 )
point_out = Vector2( 92.895, 112.373 )
properties = SubResource( 3 )

[sub_resource type="Resource" id=5]
script = ExtResource( 6 )
texture_idx = 0
flip = false
width = 1.0

[sub_resource type="Resource" id=6]
script = ExtResource( 11 )
position = Vector2( -96.7949, -35.4884 )
point_in = Vector2( -148.332, 118.366 )
point_out = Vector2( 148.332, -118.366 )
properties = SubResource( 5 )

[sub_resource type="Resource" id=7]
script = ExtResource( 6 )
texture_idx = 0
flip = false
width = 1.0

[sub_resource type="Resource" id=8]
script = ExtResource( 11 )
position = Vector2( 590.922, 758.685 )
point_in = Vector2( 0, 0 )
point_out = Vector2( 0, 0 )
properties = SubResource( 7 )

[sub_resource type="Resource" id=9]
script = ExtResource( 6 )
texture_idx = 0
flip = false
width = 1.0

[sub_resource type="Resource" id=10]
script = ExtResource( 11 )
position = Vector2( -70.906, 667.796 )
point_in = Vector2( 0, 0 )
point_out = Vector2( 0, 0 )
properties = SubResource( 9 )

[sub_resource type="Resource" id=11]
script = ExtResource( 6 )
texture_idx = 0
flip = false
width = 1.0

[sub_resource type="Resource" id=12]
script = ExtResource( 11 )
position = Vector2( 286.964, -2.25858 )
point_in = Vector2( 11.9865, -178.298 )
point_out = Vector2( -11.9865, 178.298 )
properties = SubResource( 11 )

[sub_resource type="Resource" id=13]
script = ExtResource( 10 )
_points = {
0: SubResource( 2 ),
1: SubResource( 4 ),
3: SubResource( 6 ),
4: SubResource( 8 ),
5: SubResource( 10 ),
6: SubResource( 12 )
}
_point_order = [ 0, 6, 1, 4, 5, 3 ]
_constraints = {
[ 0, 3 ]: 15
}
_next_key = 7

[sub_resource type="Resource" id=14]
script = ExtResource( 8 )
begin = 0.0
distance = 0.0
edgeRendering = Vector2( 0, 0 )

[sub_resource type="Resource" id=15]
script = ExtResource( 7 )
normal_range = SubResource( 14 )
weld = true
render = false
z_index = 0
z_as_relative = true
offset = 0.0

[sub_resource type="Resource" id=16]
script = ExtResource( 8 )
begin = 0.0
distance = 0.0
edgeRendering = Vector2( 0, 0 )

[sub_resource type="Resource" id=17]
script = ExtResource( 7 )
normal_range = SubResource( 16 )
weld = true
render = false
z_index = 0
z_as_relative = true
offset = 0.0

[sub_resource type="Resource" id=18]
script = ExtResource( 8 )
begin = 0.0
distance = 0.0
edgeRendering = Vector2( 0, 0 )

[sub_resource type="Resource" id=19]
script = ExtResource( 7 )
normal_range = SubResource( 18 )
weld = true
render = false
z_index = 0
z_as_relative = true
offset = 0.0

[sub_resource type="Resource" id=20]
script = ExtResource( 9 )
textures = [ ExtResource( 5 ) ]
texture_normals = [  ]
textures_corner_outer = [  ]
textures_corner_inner = [  ]
texture_normals_corner_outer = [  ]
texture_normals_corner_inner = [  ]
textures_taper_left = [  ]
textures_taper_right = [  ]
texture_normals_taper_left = [  ]
texture_normals_taper_right = [  ]
use_corner_texture = true
use_taper_texture = true
fit_mode = 0

[sub_resource type="Resource" id=21]
script = ExtResource( 8 )
begin = 0.0
distance = 0.0
edgeRendering = Vector2( 0, 0 )

[sub_resource type="Resource" id=22]
script = ExtResource( 7 )
edge_material = SubResource( 20 )
normal_range = SubResource( 21 )
weld = true
render = true
z_index = 0
z_as_relative = true
offset = 0.0

[sub_resource type="Resource" id=23]
script = ExtResource( 12 )
_edge_meta_materials = [ SubResource( 22 ) ]
fill_textures = [ ExtResource( 2 ) ]
fill_texture_normals = [  ]
fill_texture_z_index = -10
fill_mesh_offset = 0.0
render_offset = 0.0

[node name="LayerUpper1" type="Node2D"]
z_index = -999

[node name="LayerShape" type="StaticBody2D" parent="."]
collision_layer = 4

[node name="SS2D_Shape_Closed" type="Node2D" parent="LayerShape"]
script = ExtResource( 1 )
_points = SubResource( 13 )
material_overrides = {
[ 5, 3 ]: SubResource( 19 ),
[ 4, 5 ]: SubResource( 15 ),
[ 1, 4 ]: SubResource( 17 )
}
shape_material = SubResource( 23 )
tessellation_stages = 5
tessellation_tolerence = 4.0
flip_edges = false
render_edges = true
collision_size = 32.0
collision_offset = 0.0
collision_polygon_node_path = NodePath("../CollisionPolygon2D")

[node name="CollisionPolygon2D" type="CollisionPolygon2D" parent="LayerShape"]
visible = false
modulate = Color( 1, 1, 1, 0.3 )
polygon = PoolVector2Array( -96.8047, -35.5007, -67.9165, -56.5912, -37.232, -75.368, -5.27607, -91.665, 27.4264, -105.316, 60.3505, -116.156, 92.9712, -124.018, 124.764, -128.738, 155.204, -130.151, 183.766, -128.072, 197.177, -125.671, 209.923, -122.351, 221.938, -118.078, 233.156, -112.832, 243.511, -106.593, 252.937, -99.3375, 261.368, -91.0455, 268.738, -81.6958, 274.98, -71.2681, 280.027, -59.7425, 283.816, -47.099, 286.281, -33.3175, 287.357, -18.3773, 286.964, -2.25858, 286.701, 13.2119, 288.015, 26.2905, 289.239, 31.9808, 290.846, 37.1256, 292.812, 41.7452, 295.124, 45.858, 297.771, 49.4831, 300.742, 52.6399, 304.026, 55.3476, 307.615, 57.6249, 311.496, 59.4895, 315.662, 60.959, 320.1, 62.0508, 324.801, 62.7704, 334.943, 63.2203, 345.997, 62.4529, 370.506, 57.8524, 426.69, 40.4966, 487.783, 20.0217, 518.439, 11.5501, 548.245, 5.82487, 562.613, 4.36175, 576.507, 4.01436, 589.844, 4.93656, 602.532, 7.29135, 608.605, 9.05168, 614.486, 11.2116, 620.162, 13.7995, 625.623, 16.8339, 630.857, 20.333, 635.853, 24.3152, 640.6, 28.7988, 645.091, 33.7992, 649.273, 39.4297, 653.107, 45.7699, 656.609, 52.7906, 659.793, 60.464, 665.213, 77.6809, 669.442, 97.2172, 674.592, 142.433, 675.834, 194.48, 652.854, 438.39, 593.474, 762.247, -72.8437, 669.902, -139.496, 360.545, -153.81, 239.053, -155.36, 124.334, -149.504, 73.3653, -144.608, 50.1529, -138.288, 28.7087, -130.443, 9.22561, -120.967, -8.09521, -115.588, -15.8831, -109.782, -23.0659, -103.524, -29.6136 )
