[gd_scene load_steps=6 format=2]

[ext_resource path="res://game/ecs/components/pickup.tscn" type="PackedScene" id=1]
[ext_resource path="res://game/ecs/entities/pickup.gd" type="Script" id=2]
[ext_resource path="res://game/assets/pickup_diamond.png" type="Texture" id=3]
[ext_resource path="res://game/assets/pickup_frame.png" type="Texture" id=4]

[sub_resource type="CircleShape2D" id=1]
radius = 53.8093

[node name="PickupDiamond" type="Area2D"]
z_index = 1
collision_layer = 2
script = ExtResource( 2 )

[node name="pickup_frame" type="Sprite" parent="."]
position = Vector2( 3.32561, -1.57908 )
texture = ExtResource( 4 )

[node name="Sprite" type="Sprite" parent="."]
position = Vector2( 2.84478, -5.51948 )
texture = ExtResource( 3 )

[node name="CollisionShape2D" type="CollisionShape2D" parent="."]
position = Vector2( 3.96851, -2.3811 )
shape = SubResource( 1 )

[node name="Components" type="Node" parent="."]

[node name="Pickup" parent="Components" instance=ExtResource( 1 )]
id = "tungsten"
type = "temp"
value = 16
points = 10
